\relax 
\@writefile{toc}{\contentsline {section}{\numberline {1}Goal}{1}}
\@writefile{toc}{\contentsline {section}{\numberline {2}Existing Methods}{1}}
\@writefile{toc}{\contentsline {subsection}{\numberline {2.1}Taint Analysis}{1}}
\@writefile{toc}{\contentsline {subsection}{\numberline {2.2}Static Analysis}{1}}
\@writefile{toc}{\contentsline {subsection}{\numberline {2.3}FlowDroid PLDI’14}{1}}
\@writefile{toc}{\contentsline {subsubsection}{\numberline {2.3.1}Short commings}{1}}
\@writefile{toc}{\contentsline {subsection}{\numberline {2.4}Dynamic Analysis}{1}}
\@writefile{toc}{\contentsline {subsection}{\numberline {2.5}TaintDroid OSDI 10}{1}}
\@writefile{toc}{\contentsline {subsubsection}{\numberline {2.5.1}Short commings}{2}}
\@writefile{toc}{\contentsline {subsection}{\numberline {2.6}Common short commings}{2}}
\@writefile{toc}{\contentsline {section}{\numberline {3}Architecture}{2}}
\@writefile{toc}{\contentsline {section}{\numberline {4}Comparisons}{2}}
