1Mbytes,No PrivacyGuard,No PrivacyGuard, PrivacyGuard (no filter), PrivacyGuard (no filter), PrivacyGuard (sync filter), PrivacyGuard (sync filter), PrivacyGuard (async filter), PrivacyGuard (async filter)
Download,734,203,735,183,0,0,0,0
Upload,481,63,604,86,646,141,609,75

